
Problem Background
------------------

This application is a dummy thetrainline.com iOS application.

It has multiple screens:
1. Search screen to enter the journey criteria
2. Date picker
3. Journey results
4. Done!

At thetraineline.com we use this application a lot and keep finding new defects. So we have decided to hire a QA who can find different scenarios and write automation tests against it, to make sure we catch all defects even after our over-zealous developers refactor code.


Problem Statement
-----------------

Story: As a user I want to find suitable train journey and to achieve this I type origin and destination, journey times and journey type (Single/Open return/Return).

Task: Identify test scenarios for screens one and two and write tests for them in your favourite automation framework. Also write one test which navigates to screen 4.


Vamsi Notes:
------------



To get all simulators: instruments -s

>>iPhone 6_9.1 (9.1) [0151256A-9A86-46D9-98AA-37EAB3038F09] (Simulator)

**** To RUN:-

> DEVICE_TARGET="iPhone 6_9.1 (9.1)" bundle exec cucumber -t @v1

> RESET_BETWEEN_SCENARIOS=1 bundle exec cucumber -t @v1

> RESET_BETWEEN_SCENARIOS=1 DEVICE_TARGET="iPhone 6_9.1 (9.1)" bundle exec cucumber -t @v1


**** Running irb...Console
-----------------------------------------------------------------

calabash-ios console aut/sim/TTL.app/

query("button")
flash("label marked:'Done'")
touch("all view marked:'Done'")
flash("* {text CONTAINS 'Done'}")
touch("* {text CONTAINS 'Done'}", :offset => {:x => 1, :y => 20})
touch("* {text CONTAINS 'thetrainline.com'}", :offset => {:x => 1, :y => 20})

touch("* marked:'origin'", :offset => {:x => 1, :y => 20})
fast_enter_text("vamsi")

-----------------------------------------------------------------

**** LINKS:-

http://www.rubydoc.info/gems/calabash-cucumber/0.12.2/Calabash/Cucumber/Launcher:reset_app_sandbox

http://www.mobiletestworld.com/2014/01/calabash-how-to-reset-app-for-specific.html


**** New code:
-----------------------------------------------------------------

Auto correction > query('UITextField', [{setAutocorrectionType:1}])

-----------------------------------------------------------------
buttons touch > touch("* {text CONTAINS '#{arg}'}", :offset => {:x => 20, :y => 15})

-----------------------------------------------------------------

And(/^I click on "([^"]*)" field/) do |key|

  hash_map = { one_way: "One way",
               open_return: "Open return",
               return:"Return",
               search:"Search",
               faq:"FAQ"
    }
  query "textField isFirstResponder:1", :resignFirstResponder
  touch "UISegmentLabel text: hash_map[:'#{key}']"
end
-----------------------------------------------------------------


